com/tech/intro/to/jsf/page/WelcomePageBean.class
com/tech/intro/to/jsf/resources/JavaEE8Resource.class
com/tech/intro/to/jsf/JAXRSConfiguration.class
com/tech/intro/to/jsf/bean/SampleSessionScopedBean.class
com/tech/intro/to/jsf/bean/SampleApplicationScopedBean.class
com/tech/intro/to/jsf/bean/SampleViewScopedBean.class
